…
\##Short paragraph about the dataset These data are not tidy. Route
number should be a variable, as should route. That is, to obtain a tidy
dataset we would need to convert `route` variables from wide to long
format. This will be useful when focusing on specific routes, but may
not be necessary when considering questions that focus on station-level
variables.

``` r
trans_ent %>% 
  select(station_name, line) %>% 
  distinct
```

    ## # A tibble: 465 × 2
    ##    station_name             line    
    ##    <chr>                    <chr>   
    ##  1 25th St                  4 Avenue
    ##  2 36th St                  4 Avenue
    ##  3 45th St                  4 Avenue
    ##  4 53rd St                  4 Avenue
    ##  5 59th St                  4 Avenue
    ##  6 77th St                  4 Avenue
    ##  7 86th St                  4 Avenue
    ##  8 95th St                  4 Avenue
    ##  9 9th St                   4 Avenue
    ## 10 Atlantic Av-Barclays Ctr 4 Avenue
    ## # … with 455 more rows

## From this chunk, we can know that the number of rows are the same as the number of unique stations is 465.

``` r
trans_ent %>% 
  filter(ada == TRUE) %>% 
  select(station_name, line) %>% 
  distinct
```

    ## # A tibble: 84 × 2
    ##    station_name                   line           
    ##    <chr>                          <chr>          
    ##  1 Atlantic Av-Barclays Ctr       4 Avenue       
    ##  2 DeKalb Av                      4 Avenue       
    ##  3 Pacific St                     4 Avenue       
    ##  4 Grand Central                  42nd St Shuttle
    ##  5 34th St                        6 Avenue       
    ##  6 47-50th Sts Rockefeller Center 6 Avenue       
    ##  7 Church Av                      6 Avenue       
    ##  8 21st St                        63rd Street    
    ##  9 Lexington Av                   63rd Street    
    ## 10 Roosevelt Island               63rd Street    
    ## # … with 74 more rows
…
## The porprotion will be 0.377.

``` r
  trans_ent %>% 
  pivot_longer(
    route1:route11,
    names_to = "route_num",
    values_to = "route") %>% 
  filter(route == "A") %>% 
  select(station_name, line) %>% 
  distinct
```

    ## # A tibble: 60 × 2
    ##    station_name                  line           
    ##    <chr>                         <chr>          
    ##  1 Times Square                  42nd St Shuttle
    ##  2 125th St                      8 Avenue       
    ##  3 145th St                      8 Avenue       
    ##  4 14th St                       8 Avenue       
    ##  5 168th St - Washington Heights 8 Avenue       
    ##  6 175th St                      8 Avenue       
    ##  7 181st St                      8 Avenue       
    ##  8 190th St                      8 Avenue       
    ##  9 34th St                       8 Avenue       
    ## 10 42nd St                       8 Avenue       
    ## # … with 50 more rows
…
